…
```r
features_quantification(mcn)
```

```
## # A tibble: 30 × 21
##    .features_id control_1 control_2 control_3 control_4 control_5 model_1
##    <chr>            <dbl>     <dbl>     <dbl>     <dbl>     <dbl>   <dbl>
##  1 202               29.1      57.4      18.5      60.5      46.8    27.5
##  2 2020              32.9      63.0      56.6      63.9      69.9    66.1
##  3 2022              73.8      23.6      31.9      45.5      41.5    29.5
##  4 2023              42.6      70.2      71.8      39.1      10.7    64.4
##  5 2024              43.9      78.6      77.4      75.6      58.7    34.8
##  6 2025              24.5      37.2      58.7      25.7      15.6    48.1
##  7 2026              89.8      48.4      52.3      68.2      24.3    57.3
##  8 2027              80.5      66.7      62.1      52.5      48.3    52.2
##  9 2028              55.3      91.3      73.6      76.4      74.1    28.7
## 10 2029              56.6      30.9      15.6      34.6      42.6    21.1
## # … with 20 more rows, and 14 more variables: model_2 <dbl>, model_3 <dbl>,
## #   model_4 <dbl>, model_5 <dbl>, treat_1 <dbl>, treat_2 <dbl>, treat_3 <dbl>,
## #   treat_4 <dbl>, treat_5 <dbl>, pos_1 <dbl>, pos_2 <dbl>, pos_3 <dbl>,
## #   pos_4 <dbl>, pos_5 <dbl>
```

### Statistic analysis

Compare two groups: Model vs Control.


```r
mcn <- binary_comparison(mcn, model - control)
top_data <- top_table(statistic_set(mcn))
top_data
```

```
## $`model - control`
## # A tibble: 30 × 7
##    .features_id  logFC AveExpr     t  P.Value adj.P.Val      B
##    <chr>         <dbl>   <dbl> <dbl>    <dbl>     <dbl>  <dbl>
##  1 2071         -1.76  -0.183  -3.75 0.000630    0.0162 -0.426
##  2 2025          1.22   0.0974  3.56 0.00108     0.0162 -0.919
##  3 2097          1.02  -0.0853  2.85 0.00731     0.0731 -2.66 
##  4 2096         -0.993 -0.0310 -2.56 0.0149      0.112  -3.29 
##  5 209           0.900 -0.0986  2.42 0.0209      0.126  -3.59 
##  6 2095         -0.704 -0.104  -1.82 0.0773      0.386  -4.69 
##  7 2092          0.894 -0.189   1.50 0.142       0.610  -5.18 
##  8 2023          0.602  0.120   1.34 0.188       0.658  -5.39 
##  9 2099          0.575 -0.126   1.25 0.221       0.658  -5.50 
## 10 2029          0.474 -0.0430  1.19 0.242       0.658  -5.57 
## # … with 20 more rows
```
…
